Parallelization
…
This makes sure that we get the same result each time we (or someone else) run our code even though the re-sampling is done "randomly"

---

# R Step 4: Load in data

Read in the csv, this is just a dataset on biodiversity and economic development

```r
df <- read_csv("data/final_panel.csv")
df
```

```
## # A tibble: 60,512 x 7
##    abundance  gdppc location_id  year temp_avg precip_avg state
##        <dbl>  <dbl>       <dbl> <dbl>    <dbl>      <dbl> <dbl>
##  1      3288 38225.           1  1992     5.66       162.    27
##  2      2220 42840.           1  1996     5.35       162.    27
##  3       542 28387.           7  1990    12.7        124.    35
##  4       536 28724.           7  1991    12.5        124.    35
##  5      1206 29172.           7  1992    12.5        124.    35
##  6      1581 30144.           7  1993    12.6        123.    35
##  7       863 30986.           7  1994    12.8        122.    35
##  8      1196 31574.           7  1995    13.0        121.    35
##  9       440 31941.           7  1996    13.2        120.    35
## 10      1446 32522.           7  1997    13.4        121.    35
## # … with 60,502 more rows
```
…
